EESchema Schematic File Version 4
EELAYER 26 0
EELAYER END
$Descr A4 11693 8268
encoding utf-8
Sheet 1 1
Title ""
Date ""
Rev ""
Comp ""
Comment1 ""
Comment2 ""
Comment3 ""
Comment4 ""
$EndDescr
$Comp
L Timer:LM555 U?
U 1 1 5BD29697
P 5300 3400
F 0 "U?" H 5300 3978 50  0000 C CNN
F 1 "LM555" H 5300 3887 50  0000 C CNN
F 2 "" H 5300 3400 50  0001 C CNN
F 3 "http://www.ti.com/lit/ds/symlink/lm555.pdf" H 5300 3400 50  0001 C CNN
	1    5300 3400
	1    0    0    -1  
$EndComp
$Comp
L Device:CP1 C?
U 1 1 5BD296FB
P 4200 2750
F 0 "C?" H 4315 2796 50  0000 L CNN
F 1 "CP1" H 4315 2705 50  0000 L CNN
F 2 "" H 4200 2750 50  0001 C CNN
F 3 "~" H 4200 2750 50  0001 C CNN
	1    4200 2750
	1    0    0    -1  
$EndComp
Wire Wire Line
	4800 3200 4200 3200
Wire Wire Line
	4200 3200 4200 2900
Wire Wire Line
	5800 3600 5800 4000
Wire Wire Line
	5800 4000 4200 4000
Wire Wire Line
	4200 4000 4200 3200
Connection ~ 4200 3200
$Comp
L Device:R R?
U 1 1 5BD29760
P 4200 4150
F 0 "R?" H 4270 4196 50  0000 L CNN
F 1 "R" H 4270 4105 50  0000 L CNN
F 2 "" V 4130 4150 50  0001 C CNN
F 3 "~" H 4200 4150 50  0001 C CNN
	1    4200 4150
	1    0    0    -1  
$EndComp
Connection ~ 4200 4000
$Comp
L power:GND #PWR?
U 1 1 5BD2981F
P 4200 4300
F 0 "#PWR?" H 4200 4050 50  0001 C CNN
F 1 "GND" H 4205 4127 50  0000 C CNN
F 2 "" H 4200 4300 50  0001 C CNN
F 3 "" H 4200 4300 50  0001 C CNN
	1    4200 4300
	1    0    0    -1  
$EndComp
$Comp
L power:GND #PWR?
U 1 1 5BD2984A
P 5300 3800
F 0 "#PWR?" H 5300 3550 50  0001 C CNN
F 1 "GND" H 5305 3627 50  0000 C CNN
F 2 "" H 5300 3800 50  0001 C CNN
F 3 "" H 5300 3800 50  0001 C CNN
	1    5300 3800
	1    0    0    -1  
$EndComp
$Comp
L power:+5V #PWR?
U 1 1 5BD298A5
P 4200 2600
F 0 "#PWR?" H 4200 2450 50  0001 C CNN
F 1 "+5V" H 4215 2773 50  0000 C CNN
F 2 "" H 4200 2600 50  0001 C CNN
F 3 "" H 4200 2600 50  0001 C CNN
	1    4200 2600
	1    0    0    -1  
$EndComp
$Comp
L power:+5V #PWR?
U 1 1 5BD298D3
P 4800 3600
F 0 "#PWR?" H 4800 3450 50  0001 C CNN
F 1 "+5V" V 4815 3728 50  0000 L CNN
F 2 "" H 4800 3600 50  0001 C CNN
F 3 "" H 4800 3600 50  0001 C CNN
	1    4800 3600
	0    -1   -1   0   
$EndComp
$Comp
L power:+5V #PWR?
U 1 1 5BD2990A
P 5300 3000
F 0 "#PWR?" H 5300 2850 50  0001 C CNN
F 1 "+5V" H 5315 3173 50  0000 C CNN
F 2 "" H 5300 3000 50  0001 C CNN
F 3 "" H 5300 3000 50  0001 C CNN
	1    5300 3000
	1    0    0    -1  
$EndComp
$Comp
L Connector_Generic:Conn_01x04 J?
U 1 1 5BD29A4F
P 7900 2650
F 0 "J?" V 7866 2362 50  0000 R CNN
F 1 "Conn_01x04" V 7775 2362 50  0000 R CNN
F 2 "" H 7900 2650 50  0001 C CNN
F 3 "~" H 7900 2650 50  0001 C CNN
	1    7900 2650
	0    -1   -1   0   
$EndComp
$Comp
L Connector_Generic:Conn_01x04 J?
U 1 1 5BD29AC0
P 8000 4050
F 0 "J?" V 7873 4230 50  0000 L CNN
F 1 "Conn_01x04" V 7964 4230 50  0000 L CNN
F 2 "" H 8000 4050 50  0001 C CNN
F 3 "~" H 8000 4050 50  0001 C CNN
	1    8000 4050
	0    1    1    0   
$EndComp
$Comp
L Transistor_FET:FDS6890A Q?
U 1 1 5BD29BB9
P 7700 3350
F 0 "Q?" H 7600 3200 50  0000 L CNN
F 1 "FDS6890A" H 8300 3500 50  0000 L CNN
F 2 "Package_SO:SOIC-8_3.9x4.9mm_P1.27mm" H 7900 3275 50  0001 L CIN
F 3 "http://www.fairchildsemi.com/ds/FD/FDS6890A.pdf" H 7700 3350 50  0001 L CNN
	1    7700 3350
	1    0    0    1   
$EndComp
$Comp
L Transistor_FET:FDS6890A Q?
U 2 1 5BD29C1C
P 8250 3350
F 0 "Q?" H 8100 3500 50  0000 L CNN
F 1 "FDS6890A" H 8800 3200 50  0000 L CNN
F 2 "Package_SO:SOIC-8_3.9x4.9mm_P1.27mm" H 8450 3275 50  0001 L CIN
F 3 "http://www.fairchildsemi.com/ds/FD/FDS6890A.pdf" H 8250 3350 50  0001 L CNN
	2    8250 3350
	-1   0    0    -1  
$EndComp
Text GLabel 6200 3200 2    50   Input ~ 0
control
Text GLabel 7500 3350 0    50   Input ~ 0
control
Text GLabel 8450 3350 2    50   Input ~ 0
control
$Comp
L Device:R R?
U 1 1 5BD2A03C
P 6050 3200
F 0 "R?" V 5843 3200 50  0000 C CNN
F 1 "R" V 5934 3200 50  0000 C CNN
F 2 "" V 5980 3200 50  0001 C CNN
F 3 "~" H 6050 3200 50  0001 C CNN
	1    6050 3200
	0    1    1    0   
$EndComp
Wire Wire Line
	5800 3200 5900 3200
Wire Wire Line
	7800 3550 7800 3850
Wire Wire Line
	7800 3150 7800 2850
Wire Wire Line
	7900 2850 7900 3150
Wire Wire Line
	7900 3150 8150 3150
Wire Wire Line
	7900 3850 7900 3550
Wire Wire Line
	7900 3550 8150 3550
$Comp
L power:+5V #PWR?
U 1 1 5BD2A27A
P 8000 3850
F 0 "#PWR?" H 8000 3700 50  0001 C CNN
F 1 "+5V" H 8015 4023 50  0000 C CNN
F 2 "" H 8000 3850 50  0001 C CNN
F 3 "" H 8000 3850 50  0001 C CNN
	1    8000 3850
	1    0    0    -1  
$EndComp
$Comp
L power:+5V #PWR?
U 1 1 5BD2A29D
P 8000 2850
F 0 "#PWR?" H 8000 2700 50  0001 C CNN
F 1 "+5V" H 8015 3023 50  0000 C CNN
F 2 "" H 8000 2850 50  0001 C CNN
F 3 "" H 8000 2850 50  0001 C CNN
	1    8000 2850
	-1   0    0    1   
$EndComp
$Comp
L power:GND #PWR?
U 1 1 5BD2A2C8
P 8100 2850
F 0 "#PWR?" H 8100 2600 50  0001 C CNN
F 1 "GND" H 8105 2677 50  0000 C CNN
F 2 "" H 8100 2850 50  0001 C CNN
F 3 "" H 8100 2850 50  0001 C CNN
	1    8100 2850
	1    0    0    -1  
$EndComp
$Comp
L power:GND #PWR?
U 1 1 5BD2A2E3
P 8100 3850
F 0 "#PWR?" H 8100 3600 50  0001 C CNN
F 1 "GND" H 8105 3677 50  0000 C CNN
F 2 "" H 8100 3850 50  0001 C CNN
F 3 "" H 8100 3850 50  0001 C CNN
	1    8100 3850
	-1   0    0    1   
$EndComp
$EndSCHEMATC
