EESchema Schematic File Version 4
LIBS:shield-cache
EELAYER 26 0
EELAYER END
$Descr A3 16535 11693
encoding utf-8
Sheet 1 1
Title "Raspberry Pi HAT"
Date ""
Rev "A"
Comp ""
Comment1 ""
Comment2 ""
Comment3 ""
Comment4 ""
$EndDescr
$Comp
L raspberrypi_hat:Hole_3mm_PTH H1
U 1 1 5834BC4A
P 5650 6000
F 0 "H1" H 5500 6100 60  0000 C CNN
F 1 "3mm_Mounting_Hole" H 5650 5850 60  0000 C CNN
F 2 "Mounting_Holes:MountingHole_3mm" H 5550 6000 60  0001 C CNN
F 3 "" H 5550 6000 60  0001 C CNN
	1    5650 6000
	1    0    0    -1  
$EndComp
$Comp
L raspberrypi_hat:Hole_3mm_PTH H3
U 1 1 5834BCDF
P 6650 6000
F 0 "H3" H 6500 6100 60  0000 C CNN
F 1 "3mm_Mounting_Hole" H 6650 5850 60  0000 C CNN
F 2 "Mounting_Holes:MountingHole_3mm" H 6550 6000 60  0001 C CNN
F 3 "" H 6550 6000 60  0001 C CNN
	1    6650 6000
	1    0    0    -1  
$EndComp
$Comp
L raspberrypi_hat:PI40HAT J2
U 1 1 58DFC771
P 2600 2250
F 0 "J2" H 2950 2350 50  0000 C CNN
F 1 "40HAT" H 2300 2350 50  0000 C CNN
F 2 "Socket_Strips:Socket_Strip_Straight_2x20_Pitch2.54mm" H 2600 2450 50  0000 C CNN
F 3 "" H 1900 2250 50  0000 C CNN
	1    2600 2250
	1    0    0    -1  
$EndComp
Text Label 3150 7400 2    60   ~ 0
P3V3
Text Label 5250 4700 0    60   ~ 0
P5V
Wire Wire Line
	5250 4700 5750 4700
Text Label 6950 4700 2    60   ~ 0
P5V_HAT
Text Label 7150 2400 2    60   ~ 0
P5V_HAT
Wire Wire Line
	6400 2400 6550 2400
Text Label 5300 2400 0    60   ~ 0
P5V
Wire Wire Line
	5300 2400 5600 2400
Text Notes 5150 1750 0    118  ~ 24
5V Powered HAT Protection
Text Notes 4900 2050 0    60   ~ 0
This is the recommended 5V rail protection for \na HAT with power going to the Pi.\nSee https://github.com/raspberrypi/hats/blob/master/designguide.md#back-powering-the-pi-via-the-j8-gpio-header
$Comp
L raspberrypi_hat:DMG2305UX Q2
U 1 1 58E14EB1
P 6150 2400
F 0 "Q2" V 6300 2550 50  0000 R CNN
F 1 "DMG2305UX" V 6300 2350 50  0000 R CNN
F 2 "TO_SOT_Packages_SMD:SOT-23" H 6350 2500 50  0001 C CNN
F 3 "" H 6150 2400 50  0000 C CNN
	1    6150 2400
	0    -1   -1   0   
$EndComp
$Comp
L raspberrypi_hat:DMMT5401 Q1
U 1 1 58E1538B
P 5850 3000
F 0 "Q1" H 6050 3075 50  0000 L CNN
F 1 "DMMT5401" H 6050 3000 50  0000 L CNN
F 2 "TO_SOT_Packages_SMD:SOT-23-6" H 6050 2925 50  0000 L CIN
F 3 "" H 5850 3000 50  0000 L CNN
	1    5850 3000
	-1   0    0    1   
$EndComp
$Comp
L raspberrypi_hat:DMMT5401 Q1
U 2 1 58E153D6
P 6450 3000
F 0 "Q1" H 6650 3075 50  0000 L CNN
F 1 "DMMT5401" H 6650 3000 50  0000 L CNN
F 2 "TO_SOT_Packages_SMD:SOT-23-6" H 6650 2925 50  0000 L CIN
F 3 "" H 6450 3000 50  0000 L CNN
	2    6450 3000
	1    0    0    1   
$EndComp
$Comp
L Device:R R5
U 1 1 58E15896
P 5750 3600
F 0 "R5" V 5830 3600 50  0000 C CNN
F 1 "22" V 5750 3600 50  0000 C CNN
F 2 "Resistors_SMD:R_0603_HandSoldering" V 5680 3600 50  0001 C CNN
F 3 "" H 5750 3600 50  0001 C CNN
F 4 "Yageo" H -9800 -10750 50  0001 C CNN "MFR"
F 5 "RC0402JR-0722RL" H -9800 -10750 50  0001 C CNN "MPN"
F 6 "Digikey" H -9800 -10750 50  0001 C CNN "SPR"
F 7 "311-22JRCT-ND" H -9800 -10750 50  0001 C CNN "SPN"
	1    5750 3600
	1    0    0    -1  
$EndComp
$Comp
L Device:R R7
U 1 1 58E158A1
P 6550 3600
F 0 "R7" V 6630 3600 50  0000 C CNN
F 1 "22" V 6550 3600 50  0000 C CNN
F 2 "Resistors_SMD:R_0603_HandSoldering" V 6480 3600 50  0001 C CNN
F 3 "" H 6550 3600 50  0001 C CNN
F 4 "Yageo" H -9000 -10950 50  0001 C CNN "MFR"
F 5 "RC0402JR-0722RL" H -9000 -10950 50  0001 C CNN "MPN"
F 6 "Digikey" H -9000 -10950 50  0001 C CNN "SPR"
F 7 "311-22JRCT-ND" H -9000 -10950 50  0001 C CNN "SPN"
	1    6550 3600
	1    0    0    -1  
$EndComp
$Comp
L power:GND #PWR09
U 1 1 58E15A41
P 5750 3800
F 0 "#PWR09" H 5750 3550 50  0001 C CNN
F 1 "GND" H 5750 3650 50  0000 C CNN
F 2 "" H 5750 3800 50  0000 C CNN
F 3 "" H 5750 3800 50  0000 C CNN
	1    5750 3800
	1    0    0    -1  
$EndComp
$Comp
L power:GND #PWR010
U 1 1 58E15A9E
P 6550 3800
F 0 "#PWR010" H 6550 3550 50  0001 C CNN
F 1 "GND" H 6550 3650 50  0000 C CNN
F 2 "" H 6550 3800 50  0000 C CNN
F 3 "" H 6550 3800 50  0000 C CNN
	1    6550 3800
	1    0    0    -1  
$EndComp
Wire Wire Line
	5750 3800 5750 3750
Wire Wire Line
	6550 3800 6550 3750
Wire Wire Line
	6550 3200 6550 3300
Wire Wire Line
	6150 2650 6150 3300
Wire Wire Line
	6150 3300 6550 3300
Connection ~ 6550 3300
Wire Wire Line
	5750 3200 5750 3350
Wire Wire Line
	6050 3000 6050 3350
Wire Wire Line
	5750 3350 6050 3350
Connection ~ 5750 3350
Wire Wire Line
	6250 3350 6250 3000
Connection ~ 6050 3350
Wire Wire Line
	5750 2800 5750 2400
Connection ~ 5750 2400
Wire Wire Line
	6550 2800 6550 2400
Connection ~ 6550 2400
$Comp
L raspberrypi_hat:CAT24C32 U1
U 1 1 58E1713F
P 2100 5850
F 0 "U1" H 2450 6200 50  0000 C CNN
F 1 "CAT24C32" H 1850 6200 50  0000 C CNN
F 2 "Housings_SOIC:SOIC-8_3.9x4.9mm_Pitch1.27mm" H 2100 5850 50  0001 C CNN
F 3 "" H 2100 5850 50  0000 C CNN
	1    2100 5850
	1    0    0    -1  
$EndComp
$Comp
L Device:R R3
U 1 1 58E17715
P 2350 7400
F 0 "R3" V 2430 7400 50  0000 C CNN
F 1 "3.9K" V 2350 7400 50  0000 C CNN
F 2 "Resistors_SMD:R_0603_HandSoldering" V 2280 7400 50  0001 C CNN
F 3 "" H 2350 7400 50  0001 C CNN
F 4 "Yageo" H -13200 -6950 50  0001 C CNN "MFR"
F 5 "RC0402JR-0722RL" H -13200 -6950 50  0001 C CNN "MPN"
F 6 "Digikey" H -13200 -6950 50  0001 C CNN "SPR"
F 7 "311-22JRCT-ND" H -13200 -6950 50  0001 C CNN "SPN"
	1    2350 7400
	0    1    1    0   
$EndComp
$Comp
L Device:R R4
U 1 1 58E17720
P 2350 7650
F 0 "R4" V 2430 7650 50  0000 C CNN
F 1 "3.9K" V 2350 7650 50  0000 C CNN
F 2 "Resistors_SMD:R_0603_HandSoldering" V 2280 7650 50  0001 C CNN
F 3 "" H 2350 7650 50  0001 C CNN
F 4 "Yageo" H -13200 -6700 50  0001 C CNN "MFR"
F 5 "RC0402JR-0722RL" H -13200 -6700 50  0001 C CNN "MPN"
F 6 "Digikey" H -13200 -6700 50  0001 C CNN "SPR"
F 7 "311-22JRCT-ND" H -13200 -6700 50  0001 C CNN "SPN"
	1    2350 7650
	0    1    1    0   
$EndComp
Wire Wire Line
	1250 7400 2150 7400
Wire Wire Line
	1250 7650 2150 7650
Wire Wire Line
	2150 7500 1250 7500
Wire Wire Line
	2150 7750 1250 7750
Wire Wire Line
	2150 7750 2150 7650
Connection ~ 2150 7650
Wire Wire Line
	2150 7500 2150 7400
Connection ~ 2150 7400
Wire Wire Line
	2500 7400 2700 7400
Wire Wire Line
	2700 7650 2500 7650
Connection ~ 2700 7400
Text Label 1250 7400 0    60   ~ 0
ID_SD_EEPROM_pu
Text Label 1250 7500 0    60   ~ 0
ID_SD_EEPROM
Text Label 1250 7650 0    60   ~ 0
ID_SC_EEPROM_pu
Text Label 1250 7750 0    60   ~ 0
ID_SC_EEPROM
Wire Wire Line
	3450 6050 2600 6050
Wire Wire Line
	2600 5950 3450 5950
Text Label 3450 5950 2    60   ~ 0
ID_SD_EEPROM_pu
Text Label 3450 6050 2    60   ~ 0
ID_SC_EEPROM_pu
$Comp
L Connector_Generic:Conn_01x02 J1
U 1 1 58E18D32
P 750 6100
F 0 "J1" H 750 6250 50  0000 C CNN
F 1 "CONN_01X02" V 850 6100 50  0000 C CNN
F 2 "Pin_Headers:Pin_Header_Straight_1x02_Pitch2.54mm" H 750 6100 50  0001 C CNN
F 3 "" H 750 6100 50  0000 C CNN
	1    750  6100
	-1   0    0    1   
$EndComp
$Comp
L Device:R R2
U 1 1 58E19E51
P 1550 6250
F 0 "R2" V 1630 6250 50  0000 C CNN
F 1 "10K" V 1550 6250 50  0000 C CNN
F 2 "Resistors_SMD:R_0603_HandSoldering" V 1480 6250 50  0001 C CNN
F 3 "" H 1550 6250 50  0001 C CNN
F 4 "Yageo" H -14000 -8100 50  0001 C CNN "MFR"
F 5 "RC0402JR-0722RL" H -14000 -8100 50  0001 C CNN "MPN"
F 6 "Digikey" H -14000 -8100 50  0001 C CNN "SPR"
F 7 "311-22JRCT-ND" H -14000 -8100 50  0001 C CNN "SPN"
	1    1550 6250
	-1   0    0    1   
$EndComp
Text Label 2400 5350 2    60   ~ 0
P3V3
Wire Wire Line
	2100 5350 2400 5350
Wire Wire Line
	2100 5350 2100 5450
$Comp
L power:GND #PWR01
U 1 1 58E1A612
P 1050 5750
F 0 "#PWR01" H 1050 5500 50  0001 C CNN
F 1 "GND" H 1050 5600 50  0000 C CNN
F 2 "" H 1050 5750 50  0000 C CNN
F 3 "" H 1050 5750 50  0000 C CNN
	1    1050 5750
	1    0    0    -1  
$EndComp
Wire Wire Line
	1300 5650 1300 5750
Wire Wire Line
	1050 5650 1300 5650
Wire Wire Line
	1600 5750 1300 5750
Connection ~ 1300 5750
Wire Wire Line
	1300 5850 1600 5850
$Comp
L power:GND #PWR02
U 1 1 58E1AF98
P 1050 6150
F 0 "#PWR02" H 1050 5900 50  0001 C CNN
F 1 "GND" H 1050 6000 50  0000 C CNN
F 2 "" H 1050 6150 50  0000 C CNN
F 3 "" H 1050 6150 50  0000 C CNN
	1    1050 6150
	1    0    0    -1  
$EndComp
Text Notes 3250 5350 0    60   ~ 0
EEPROM WRITE ENABLE
$Comp
L Device:R R6
U 1 1 58E2218F
P 6100 4950
F 0 "R6" V 6180 4950 50  0000 C CNN
F 1 "DNP" V 6100 4950 50  0000 C CNN
F 2 "Resistors_SMD:R_0805_HandSoldering" V 6030 4950 50  0001 C CNN
F 3 "" H 6100 4950 50  0001 C CNN
F 4 "Yageo" H -9450 -9400 50  0001 C CNN "MFR"
F 5 "RC0402JR-0722RL" H -9450 -9400 50  0001 C CNN "MPN"
F 6 "Digikey" H -9450 -9400 50  0001 C CNN "SPR"
F 7 "311-22JRCT-ND" H -9450 -9400 50  0001 C CNN "SPN"
	1    6100 4950
	0    1    1    0   
$EndComp
Wire Wire Line
	5750 4700 5750 4950
Wire Wire Line
	5750 4950 5950 4950
Connection ~ 5750 4700
Wire Wire Line
	6250 4950 6400 4950
Wire Wire Line
	6400 4950 6400 4700
Connection ~ 6400 4700
$Comp
L Device:R R1
U 1 1 58E22900
P 1300 6100
F 0 "R1" V 1380 6100 50  0000 C CNN
F 1 "DNP" V 1300 6100 50  0000 C CNN
F 2 "Resistors_SMD:R_0805_HandSoldering" V 1230 6100 50  0001 C CNN
F 3 "" H 1300 6100 50  0001 C CNN
F 4 "Yageo" H -14250 -8250 50  0001 C CNN "MFR"
F 5 "RC0402JR-0722RL" H -14250 -8250 50  0001 C CNN "MPN"
F 6 "Digikey" H -14250 -8250 50  0001 C CNN "SPR"
F 7 "311-22JRCT-ND" H -14250 -8250 50  0001 C CNN "SPN"
	1    1300 6100
	0    1    1    0   
$EndComp
Text Notes 1550 7050 0    118  ~ 24
Pullup Resistors
Text Notes 2000 4800 0    118  ~ 24
HAT EEPROM
Text Notes 5300 5700 0    118  ~ 24
Mounting Holes
Text Notes 1650 2000 0    118  ~ 24
40-Pin HAT Connector
Text Label 800  4150 0    60   ~ 0
GND
Wire Wire Line
	2000 4150 1300 4150
Text Label 800  3550 0    60   ~ 0
ID_SD_EEPROM
Wire Wire Line
	2000 3550 800  3550
Text Label 800  3450 0    60   ~ 0
GND
Wire Wire Line
	2000 3450 800  3450
Text Label 800  2650 0    60   ~ 0
GND
Text Label 800  2250 0    60   ~ 0
P3V3
Wire Wire Line
	3200 2850 4400 2850
Wire Wire Line
	3200 3150 4400 3150
Wire Wire Line
	3200 3550 4400 3550
Wire Wire Line
	3200 3650 4400 3650
Wire Wire Line
	3200 3850 4400 3850
Text Label 4400 2850 2    60   ~ 0
GND
Text Label 4400 3150 2    60   ~ 0
GND
Text Label 4400 3650 2    60   ~ 0
GND
Text Label 4400 3550 2    60   ~ 0
ID_SC_EEPROM
Text Label 4400 3850 2    60   ~ 0
GND
Text Label 4400 2450 2    60   ~ 0
GND
Wire Wire Line
	3200 2450 4400 2450
Text Label 4400 2250 2    60   ~ 0
P5V_HAT
Wire Wire Line
	3200 2250 4400 2250
Wire Wire Line
	2700 7650 2700 7400
Text Notes 7150 4950 0    60   ~ 0
HAT spec indicates to NEVER\npower the 3.3V pins on the Raspberry Pi \nfrom the HAT header. Only connect the 3.3V\npower from the Pi if the HAT does not have\n3.3V on board.\n\nIF you are designing a board that could\neither be powered by the Pi or from the HAT\nthe jumpers here can be used.\n\nIn most cases, either design the HAT \nto provide the 5V to the Pi and use the\nprotection circuit above OR power the\nHAT from the Pi and directly connect\nthe P3V3 and P5V to the P3V3_HAT and P5V_HAT\npins.
Text Notes 1200 5200 0    60   ~ 0
The HAT spec requires this EEPROM with system information\nto be in place in order to be called a HAT. It should be set up as write\nprotected (WP pin held high), so it may be desirable to either put a \njumper as shown to enable writing, or to hook up a spare IO pin to do so.
Text Notes 1100 7250 0    60   ~ 0
These are just pullup resistors for the I2C bus on the EEPROM.\nThe resistor values are per the HAT spec.
Text Notes 850  1250 0    100  ~ 0
This is based on the official Raspberry Pi spec to be able to call an extension board a HAT.\nhttps://github.com/raspberrypi/hats/blob/master/designguide.md
$Comp
L power:GND #PWR07
U 1 1 58E3CC10
P 2100 6350
F 0 "#PWR07" H 2100 6100 50  0001 C CNN
F 1 "GND" H 2100 6200 50  0000 C CNN
F 2 "" H 2100 6350 50  0000 C CNN
F 3 "" H 2100 6350 50  0000 C CNN
	1    2100 6350
	1    0    0    -1  
$EndComp
Wire Wire Line
	2100 6250 2100 6350
Text Label 1800 6550 2    60   ~ 0
P3V3
Wire Wire Line
	1800 6550 1550 6550
Wire Wire Line
	1550 6550 1550 6400
Wire Wire Line
	1450 6050 1550 6050
Wire Wire Line
	1550 6000 1550 6050
Wire Wire Line
	1050 5650 1050 5750
Connection ~ 1300 5650
Wire Wire Line
	1450 6050 1450 6100
Connection ~ 1550 6050
Wire Wire Line
	950  6100 1050 6100
Wire Wire Line
	1050 6150 1050 6100
Connection ~ 1050 6100
Wire Wire Line
	950  6000 1550 6000
Wire Wire Line
	6550 3300 6550 3450
Wire Wire Line
	5750 3350 5750 3450
Wire Wire Line
	6050 3350 6250 3350
Wire Wire Line
	5750 2400 5900 2400
Wire Wire Line
	6550 2400 7150 2400
Wire Wire Line
	2150 7650 2200 7650
Wire Wire Line
	2150 7400 2200 7400
Wire Wire Line
	2700 7400 3150 7400
Wire Wire Line
	1300 5750 1300 5850
Wire Wire Line
	6400 4700 6950 4700
Wire Wire Line
	1300 5650 1600 5650
Wire Wire Line
	1550 6050 1600 6050
Wire Wire Line
	1550 6050 1550 6100
Wire Wire Line
	1050 6100 1150 6100
Wire Wire Line
	3200 2550 4400 2550
Wire Wire Line
	3200 2650 4400 2650
Text GLabel 4400 2650 2    50   Input ~ 0
UART_RX
Text GLabel 4400 2550 2    50   Input ~ 0
UART_TX
Text GLabel 7300 8700 1    50   Input ~ 0
UART_TX
Text GLabel 7600 8700 1    50   Input ~ 0
UART_RX
$Comp
L Connector_Generic:Conn_01x04 UART1
U 1 1 5BCB586D
P 7500 9450
F 0 "UART1" V 7373 9630 50  0000 L CNN
F 1 "Conn_01x04" V 7464 9630 50  0000 L CNN
F 2 "Pin_Headers:Pin_Header_Angled_1x04_Pitch2.54mm" H 7500 9450 50  0001 C CNN
F 3 "~" H 7500 9450 50  0001 C CNN
	1    7500 9450
	0    1    1    0   
$EndComp
$Comp
L power:+5V #PWR011
U 1 1 5BCBAC63
P 7500 9250
F 0 "#PWR011" H 7500 9100 50  0001 C CNN
F 1 "+5V" H 7515 9423 50  0000 C CNN
F 2 "" H 7500 9250 50  0001 C CNN
F 3 "" H 7500 9250 50  0001 C CNN
	1    7500 9250
	1    0    0    -1  
$EndComp
$Comp
L power:GND #PWR012
U 1 1 5BCBACFA
P 7600 9250
F 0 "#PWR012" H 7600 9000 50  0001 C CNN
F 1 "GND" H 7605 9077 50  0000 C CNN
F 2 "" H 7600 9250 50  0001 C CNN
F 3 "" H 7600 9250 50  0001 C CNN
	1    7600 9250
	-1   0    0    1   
$EndComp
$Comp
L power:+5V #PWR08
U 1 1 5BCBAF85
P 5600 2400
F 0 "#PWR08" H 5600 2250 50  0001 C CNN
F 1 "+5V" H 5615 2573 50  0000 C CNN
F 2 "" H 5600 2400 50  0001 C CNN
F 3 "" H 5600 2400 50  0001 C CNN
	1    5600 2400
	1    0    0    -1  
$EndComp
Connection ~ 5600 2400
Wire Wire Line
	5600 2400 5750 2400
$Comp
L Connector_Generic:Conn_01x06 PCA1
U 1 1 5BCBB315
P 8900 7600
F 0 "PCA1" V 8773 7880 50  0000 L CNN
F 1 "Conn_01x06" V 8864 7880 50  0000 L CNN
F 2 "Pin_Headers:Pin_Header_Angled_1x06_Pitch2.54mm" H 8900 7600 50  0001 C CNN
F 3 "~" H 8900 7600 50  0001 C CNN
	1    8900 7600
	0    1    1    0   
$EndComp
$Comp
L power:GND #PWR014
U 1 1 5BCBB4BD
P 9100 7400
F 0 "#PWR014" H 9100 7150 50  0001 C CNN
F 1 "GND" H 9105 7227 50  0000 C CNN
F 2 "" H 9100 7400 50  0001 C CNN
F 3 "" H 9100 7400 50  0001 C CNN
	1    9100 7400
	-1   0    0    1   
$EndComp
Text GLabel 8900 7400 1    50   Input ~ 0
SCL
Text GLabel 8800 7400 1    50   Input ~ 0
SDA
$Comp
L power:+3.3V #PWR013
U 1 1 5BCBB6AA
P 8700 7400
F 0 "#PWR013" H 8700 7250 50  0001 C CNN
F 1 "+3.3V" H 8715 7573 50  0000 C CNN
F 2 "" H 8700 7400 50  0001 C CNN
F 3 "" H 8700 7400 50  0001 C CNN
	1    8700 7400
	1    0    0    -1  
$EndComp
$Comp
L Connector_Generic:Conn_01x02 POWER1
U 1 1 5BCBBD50
P 9650 9450
F 0 "POWER1" H 9730 9442 50  0000 L CNN
F 1 "Conn_01x02" H 9730 9351 50  0000 L CNN
F 2 "Pin_Headers:Pin_Header_Angled_1x02_Pitch2.54mm" H 9650 9450 50  0001 C CNN
F 3 "~" H 9650 9450 50  0001 C CNN
	1    9650 9450
	1    0    0    -1  
$EndComp
$Comp
L power:GND #PWR015
U 1 1 5BCBBE4A
P 9450 9450
F 0 "#PWR015" H 9450 9200 50  0001 C CNN
F 1 "GND" V 9455 9322 50  0000 R CNN
F 2 "" H 9450 9450 50  0001 C CNN
F 3 "" H 9450 9450 50  0001 C CNN
	1    9450 9450
	0    1    1    0   
$EndComp
$Comp
L power:+5V #PWR016
U 1 1 5BCBBEDC
P 9450 9550
F 0 "#PWR016" H 9450 9400 50  0001 C CNN
F 1 "+5V" V 9465 9678 50  0000 L CNN
F 2 "" H 9450 9550 50  0001 C CNN
F 3 "" H 9450 9550 50  0001 C CNN
	1    9450 9550
	0    -1   -1   0   
$EndComp
Text GLabel 2000 2350 0    50   Input ~ 0
SDA
Text GLabel 2000 2450 0    50   Input ~ 0
SCL
$Comp
L Connector_Generic:Conn_01x02 V_SELECT1
U 1 1 5BCC8BDF
P 6050 4500
F 0 "V_SELECT1" V 6016 4312 50  0000 R CNN
F 1 "Conn_01x02" V 5925 4312 50  0000 R CNN
F 2 "Pin_Headers:Pin_Header_Straight_1x02_Pitch2.54mm" H 6050 4500 50  0001 C CNN
F 3 "~" H 6050 4500 50  0001 C CNN
	1    6050 4500
	0    -1   -1   0   
$EndComp
Wire Wire Line
	6150 4700 6400 4700
Wire Wire Line
	5750 4700 6050 4700
$Comp
L power:GND #PWR03
U 1 1 5BCD2B14
P 1300 4150
F 0 "#PWR03" H 1300 3900 50  0001 C CNN
F 1 "GND" H 1305 3977 50  0000 C CNN
F 2 "" H 1300 4150 50  0001 C CNN
F 3 "" H 1300 4150 50  0001 C CNN
	1    1300 4150
	1    0    0    -1  
$EndComp
Connection ~ 1300 4150
Wire Wire Line
	1300 4150 800  4150
$Comp
L power:+3.3V #PWR05
U 1 1 5BCD2DF9
P 2000 3050
F 0 "#PWR05" H 2000 2900 50  0001 C CNN
F 1 "+3.3V" V 2015 3178 50  0000 L CNN
F 2 "" H 2000 3050 50  0001 C CNN
F 3 "" H 2000 3050 50  0001 C CNN
	1    2000 3050
	0    -1   -1   0   
$EndComp
Wire Wire Line
	7400 9250 7400 8950
Wire Wire Line
	7400 8950 7600 8950
Wire Wire Line
	7300 8700 7300 9250
Wire Wire Line
	7600 8700 7600 8950
$Comp
L Connector_Generic:Conn_01x02 POWER3
U 1 1 5BD2D2AB
P 9650 9050
F 0 "POWER3" H 9730 9042 50  0000 L CNN
F 1 "Conn_01x02" H 9730 8951 50  0000 L CNN
F 2 "Pin_Headers:Pin_Header_Angled_1x02_Pitch2.54mm" H 9650 9050 50  0001 C CNN
F 3 "~" H 9650 9050 50  0001 C CNN
	1    9650 9050
	1    0    0    -1  
$EndComp
$Comp
L Connector_Generic:Conn_01x02 POWER2
U 1 1 5BD2D2F7
P 9650 8750
F 0 "POWER2" H 9730 8742 50  0000 L CNN
F 1 "Conn_01x02" H 9730 8651 50  0000 L CNN
F 2 "Pin_Headers:Pin_Header_Angled_1x02_Pitch2.54mm" H 9650 8750 50  0001 C CNN
F 3 "~" H 9650 8750 50  0001 C CNN
	1    9650 8750
	1    0    0    -1  
$EndComp
$Comp
L power:+5V #PWR0101
U 1 1 5BD2D33F
P 9450 9150
F 0 "#PWR0101" H 9450 9000 50  0001 C CNN
F 1 "+5V" V 9465 9278 50  0000 L CNN
F 2 "" H 9450 9150 50  0001 C CNN
F 3 "" H 9450 9150 50  0001 C CNN
	1    9450 9150
	0    -1   -1   0   
$EndComp
$Comp
L power:GND #PWR0102
U 1 1 5BD2D378
P 9450 9050
F 0 "#PWR0102" H 9450 8800 50  0001 C CNN
F 1 "GND" V 9455 8922 50  0000 R CNN
F 2 "" H 9450 9050 50  0001 C CNN
F 3 "" H 9450 9050 50  0001 C CNN
	1    9450 9050
	0    1    1    0   
$EndComp
$Comp
L power:+5V #PWR0103
U 1 1 5BD2D3B1
P 9450 8850
F 0 "#PWR0103" H 9450 8700 50  0001 C CNN
F 1 "+5V" V 9465 8978 50  0000 L CNN
F 2 "" H 9450 8850 50  0001 C CNN
F 3 "" H 9450 8850 50  0001 C CNN
	1    9450 8850
	0    -1   -1   0   
$EndComp
$Comp
L power:GND #PWR0104
U 1 1 5BD2D3EA
P 9450 8750
F 0 "#PWR0104" H 9450 8500 50  0001 C CNN
F 1 "GND" V 9455 8622 50  0000 R CNN
F 2 "" H 9450 8750 50  0001 C CNN
F 3 "" H 9450 8750 50  0001 C CNN
	1    9450 8750
	0    1    1    0   
$EndComp
Wire Wire Line
	800  2650 2000 2650
Wire Wire Line
	800  2250 1400 2250
$Comp
L power:+3.3V #PWR?
U 1 1 5BD35346
P 1400 2250
F 0 "#PWR?" H 1400 2100 50  0001 C CNN
F 1 "+3.3V" V 1415 2378 50  0000 L CNN
F 2 "" H 1400 2250 50  0001 C CNN
F 3 "" H 1400 2250 50  0001 C CNN
	1    1400 2250
	1    0    0    -1  
$EndComp
Connection ~ 1400 2250
Wire Wire Line
	1400 2250 2000 2250
$EndSCHEMATC
